[
  {
    "value": "enable-media-replace",
    "name": "Enable Media Replace",
    "checked": true
  },
  {
    "value": "enhanced-media-library",
    "name": "Enhanced Media Library",
    "checked": true
  },
  {
    "value": "ewww-image-optimizer",
    "name": "EWWW Image Optimizer",
    "checked": true
  },
  {
    "value": "google-analytics-for-wordpress",
    "name": "Google Analytics by Yoast",
    "checked": true
  },
  {
    "value": "regenerate-thumbnails",
    "name": "Regenerate Thumbnails",
    "checked": true
  },
  {
    "value": "w3-total-cache",
    "name": "W3 Total Cache",
    "checked": true
  },
  {
    "value": "wordpress-seo",
    "name": "WordPress SEO by Yoast",
    "checked": true
  }
]